module gitlab.com/marshall007/opa-rate-limits

go 1.18

require (
	github.com/Azure/go-ansiterm v0.0.0-20210617225240-d185dfc1b5a1 // indirect
	github.com/OneOfOne/xxhash v1.2.8 // indirect
	github.com/agnivade/levenshtein v1.0.1 // indirect
	github.com/beorn7/perks v1.0.1 // indirect
	github.com/bytecodealliance/wasmtime-go v0.36.0 // indirect
	github.com/cenkalti/backoff/v4 v4.1.3 // indirect
	github.com/cespare/xxhash v1.1.0 // indirect
	github.com/cespare/xxhash/v2 v2.1.2 // indirect
	github.com/containerd/containerd v1.6.4 // indirect
	github.com/dgraph-io/badger/v3 v3.2103.2 // indirect
	github.com/dgraph-io/ristretto v0.1.0 // indirect
	github.com/dgryski/go-rendezvous v0.0.0-20200823014737-9f7001d12a5f // indirect
	github.com/docker/cli v20.10.11+incompatible // indirect
	github.com/docker/distribution v2.7.1+incompatible // indirect
	github.com/docker/docker v20.10.11+incompatible // indirect
	github.com/docker/docker-credential-helpers v0.6.4 // indirect
	github.com/docker/go-connections v0.4.0 // indirect
	github.com/docker/go-metrics v0.0.1 // indirect
	github.com/docker/go-units v0.4.0 // indirect
	github.com/dustin/go-humanize v1.0.0 // indirect
	github.com/felixge/httpsnoop v1.0.2 // indirect
	github.com/fsnotify/fsnotify v1.5.4 // indirect
	github.com/ghodss/yaml v1.0.0 // indirect
	github.com/go-ini/ini v1.66.6 // indirect
	github.com/go-logr/logr v1.2.3 // indirect
	github.com/go-logr/stdr v1.2.2 // indirect
	github.com/go-redis/redis/v9 v9.0.0-beta.1 // indirect
	github.com/gobwas/glob v0.2.3 // indirect
	github.com/gogo/protobuf v1.3.2 // indirect
	github.com/golang/glog v1.0.0 // indirect
	github.com/golang/groupcache v0.0.0-20210331224755-41bb18bfe9da // indirect
	github.com/golang/protobuf v1.5.2 // indirect
	github.com/golang/snappy v0.0.4 // indirect
	github.com/google/flatbuffers v1.12.1 // indirect
	github.com/gorilla/mux v1.8.0 // indirect
	github.com/grpc-ecosystem/grpc-gateway/v2 v2.7.0 // indirect
	github.com/inconshreveable/mousetrap v1.0.0 // indirect
	github.com/klauspost/compress v1.13.6 // indirect
	github.com/mattn/go-runewidth v0.0.9 // indirect
	github.com/matttproud/golang_protobuf_extensions v1.0.2-0.20181231171920-c182affec369 // indirect
	github.com/moby/locker v1.0.1 // indirect
	github.com/moby/term v0.0.0-20210610120745-9d4ed1856297 // indirect
	github.com/morikuni/aec v1.0.0 // indirect
	github.com/olekukonko/tablewriter v0.0.5 // indirect
	github.com/open-policy-agent/opa v0.41.0 // indirect
	github.com/opencontainers/go-digest v1.0.0 // indirect
	github.com/opencontainers/image-spec v1.0.3-0.20211202183452-c5a74bcca799 // indirect
	github.com/peterh/liner v0.0.0-20170211195444-bf27d3ba8e1d // indirect
	github.com/pkg/errors v0.9.1 // indirect
	github.com/prometheus/client_golang v1.12.1 // indirect
	github.com/prometheus/client_model v0.2.0 // indirect
	github.com/prometheus/common v0.32.1 // indirect
	github.com/prometheus/procfs v0.7.3 // indirect
	github.com/rcrowley/go-metrics v0.0.0-20200313005456-10cdbea86bc0 // indirect
	github.com/sirupsen/logrus v1.8.1 // indirect
	github.com/spf13/cobra v1.4.0 // indirect
	github.com/spf13/pflag v1.0.5 // indirect
	github.com/vektah/gqlparser/v2 v2.4.4 // indirect
	github.com/xeipuuv/gojsonpointer v0.0.0-20190905194746-02993c407bfb // indirect
	github.com/xeipuuv/gojsonreference v0.0.0-20180127040603-bd5ef7bd5415 // indirect
	github.com/yashtewari/glob-intersection v0.1.0 // indirect
	go.opencensus.io v0.23.0 // indirect
	go.opentelemetry.io/contrib/instrumentation/net/http/otelhttp v0.32.0 // indirect
	go.opentelemetry.io/otel v1.7.0 // indirect
	go.opentelemetry.io/otel/exporters/otlp/internal/retry v1.7.0 // indirect
	go.opentelemetry.io/otel/exporters/otlp/otlptrace v1.7.0 // indirect
	go.opentelemetry.io/otel/exporters/otlp/otlptrace/otlptracegrpc v1.7.0 // indirect
	go.opentelemetry.io/otel/metric v0.30.0 // indirect
	go.opentelemetry.io/otel/sdk v1.7.0 // indirect
	go.opentelemetry.io/otel/trace v1.7.0 // indirect
	go.opentelemetry.io/proto/otlp v0.16.0 // indirect
	go.uber.org/automaxprocs v1.5.1 // indirect
	golang.org/x/net v0.0.0-20220225172249-27dd8689420f // indirect
	golang.org/x/sync v0.0.0-20210220032951-036812b2e83c // indirect
	golang.org/x/sys v0.0.0-20220412211240-33da011f77ad // indirect
	golang.org/x/text v0.3.7 // indirect
	golang.org/x/time v0.0.0-20210723032227-1f47c861a9ac // indirect
	google.golang.org/genproto v0.0.0-20220107163113-42d7afdf6368 // indirect
	google.golang.org/grpc v1.47.0 // indirect
	google.golang.org/protobuf v1.28.0 // indirect
	gopkg.in/yaml.v2 v2.4.0 // indirect
	oras.land/oras-go v1.1.1 // indirect
)
